1024 3 12
0.359749 0.433319 0
0.344187 0.436989 0
0.341407 0.423055 0
0.343000 0.425266 0
0.351906 0.441532 0
0.344890 0.431586 0
0.335901 0.434226 0
0.338419 0.444329 0
0.349690 0.436135 0
0.348476 0.433042 0
0.341912 0.441770 0
0.329165 0.441261 0
0.336583 0.434761 0
0.342489 0.437082 0
0.336237 0.430113 0
0.340589 0.427373 0
0.347663 0.440729 0
0.345438 0.431496 0
0.341651 0.432547 0
0.336728 0.439233 0
0.338300 0.432472 0
0.352885 0.436639 0
0.349763 0.439454 0
0.331902 0.430959 0
0.343269 0.434035 0
0.339212 0.434306 0
0.334547 0.442575 0
0.350683 0.435649 0
0.334737 0.442092 0
0.348357 0.437693 0
0.343030 0.432445 0
0.350006 0.430775 0
0.343318 0.445197 0
0.333188 0.454212 0
0.341023 0.443884 0
0.343878 0.419151 0
0.348833 0.429055 0
0.337980 0.446133 0
0.336684 0.436304 0
0.359144 0.429151 0
0.334350 0.431900 0
0.342521 0.432747 0
0.344372 0.429693 0
0.332758 0.434844 0
0.349208 0.431087 0
0.347672 0.433335 0
0.337923 0.434249 0
0.352374 0.429509 0
0.355686 0.442828 0
0.327031 0.432252 0
0.343958 0.416894 0
0.351927 0.440668 0
0.342429 0.450138 0
0.353533 0.440968 0
0.344096 0.431557 0
0.350035 0.421489 0
0.344625 0.440970 0
0.350142 0.432564 0
0.346312 0.441423 0
0.336786 0.437312 0
0.345921 0.443410 0
0.332695 0.442081 0
0.335567 0.423951 0
0.353924 0.432509 0
0.347540 0.452151 0
0.344384 0.435285 0
0.339599 0.429905 0
0.341318 0.450823 0
0.341498 0.426158 0
0.344378 0.433814 0
0.350198 0.435519 0
0.342344 0.437721 0
0.343769 0.437819 0
0.343664 0.424035 0
0.337116 0.425581 0
0.336495 0.452039 0
0.349862 0.429637 0
0.351668 0.430173 0
0.345164 0.435485 0
0.341237 0.438912 0
0.348389 0.425040 0
0.341160 0.442615 0
0.350599 0.423907 0
0.344557 0.433310 0
0.340540 0.428083 0
0.332740 0.432490 0
0.351452 0.445414 0
0.329960 0.439030 0
0.341773 0.432291 0
0.344856 0.452442 0
0.348232 0.434692 0
0.323794 0.430338 0
0.349885 0.429813 0
0.338271 0.432490 0
0.085934 0.903310 1
0.075496 0.924348 1
0.088960 0.901720 1
0.085795 0.911953 1
0.073265 0.908627 1
0.071576 0.925467 1
0.075892 0.923603 1
0.078043 0.920867 1
0.076884 0.909406 1
0.081730 0.933706 1
0.083012 0.912458 1
0.073629 0.924740 1
0.083034 0.924542 1
0.089563 0.911171 1
0.074003 0.938301 1
0.075313 0.923405 1
0.066126 0.927433 1
0.068568 0.924264 1
0.077255 0.930254 1
0.088295 0.918075 1
0.076003 0.921455 1
0.089020 0.914440 1
0.084567 0.910830 1
0.078266 0.903942 1
0.085713 0.920615 1
0.081736 0.922158 1
0.094345 0.918551 1
0.075612 0.909761 1
0.086092 0.929320 1
0.079171 0.909580 1
0.087952 0.911822 1
0.083441 0.921916 1
0.090458 0.921632 1
0.086207 0.921673 1
0.087949 0.916271 1
0.085778 0.922475 1
0.088258 0.903083 1
0.068797 0.921360 1
0.078621 0.911050 1
0.087400 0.907279 1
0.081196 0.911986 1
0.087971 0.906740 1
0.072031 0.930583 1
0.081975 0.914273 1
0.078639 0.911363 1
0.079298 0.916589 1
0.086177 0.921966 1
0.078057 0.921268 1
0.089585 0.926274 1
0.084149 0.905888 1
0.073010 0.906803 1
0.082603 0.923062 1
0.094709 0.926573 1
0.084636 0.925765 1
0.083027 0.915791 1
0.082389 0.919771 1
0.087373 0.923936 1
0.086688 0.928121 1
0.080494 0.919954 1
0.081242 0.896413 1
0.093257 0.918448 1
0.079720 0.925127 1
0.087809 0.913951 1
0.072211 0.902047 1
0.077753 0.926052 1
0.078019 0.925372 1
0.086249 0.917424 1
0.081002 0.922262 1
0.083791 0.922191 1
0.084382 0.907294 1
0.074975 0.912967 1
0.081292 0.917766 1
0.079583 0.909226 1
0.082440 0.913481 1
0.081433 0.909911 1
0.080935 0.928288 1
0.081906 0.921291 1
0.083384 0.919978 1
0.085018 0.915979 1
0.091864 0.914124 1
0.086109 0.926462 1
0.077359 0.915794 1
0.077434 0.925570 1
0.085918 0.918073 1
0.085808 0.924832 1
0.084492 0.917558 1
0.093636 0.922102 1
0.065023 0.914427 1
0.078920 0.907178 1
0.082938 0.915483 1
0.081967 0.920702 1
0.093817 0.918878 1
0.087096 0.916968 1
0.088094 0.918658 1
0.252173 0.808203 2
0.256589 0.794839 2
0.250212 0.805046 2
0.253720 0.805316 2
0.250880 0.822781 2
0.256383 0.802422 2
0.258490 0.809356 2
0.245686 0.807352 2
0.247911 0.800982 2
0.259807 0.822347 2
0.257389 0.802835 2
0.239671 0.804697 2
0.247954 0.808355 2
0.255319 0.807655 2
0.254067 0.809480 2
0.251859 0.820546 2
0.254763 0.812166 2
0.250832 0.818595 2
0.263414 0.808000 2
0.253832 0.818182 2
0.248218 0.816764 2
0.250496 0.805923 2
0.256913 0.808280 2
0.252690 0.814546 2
0.253149 0.811499 2
0.256584 0.800118 2
0.256043 0.804151 2
0.259705 0.809324 2
0.246993 0.818166 2
0.251665 0.789245 2
0.246613 0.803849 2
0.250344 0.814050 2
0.255211 0.805627 2
0.254159 0.807732 2
0.260507 0.810158 2
0.262435 0.796627 2
0.255825 0.822986 2
0.258375 0.804224 2
0.248499 0.805350 2
0.248330 0.808798 2
0.245550 0.805068 2
0.261076 0.809225 2
0.253288 0.794897 2
0.244431 0.815099 2
0.255314 0.820837 2
0.258790 0.810995 2
0.242858 0.804866 2
0.249603 0.816712 2
0.261857 0.795851 2
0.268453 0.796455 2
0.248763 0.807395 2
0.252966 0.809070 2
0.254426 0.802570 2
0.255792 0.820186 2
0.248742 0.812527 2
0.249621 0.804982 2
0.251654 0.788456 2
0.245483 0.807293 2
0.251121 0.805239 2
0.268392 0.801921 2
0.260787 0.813704 2
0.245937 0.808719 2
0.245243 0.797515 2
0.249396 0.796252 2
0.244548 0.802335 2
0.252100 0.810462 2
0.254521 0.811624 2
0.251332 0.809626 2
0.257989 0.811506 2
0.244786 0.803391 2
0.254596 0.793263 2
0.245393 0.823617 2
0.796340 0.530822 3
0.802743 0.536039 3
0.792569 0.520559 3
0.804495 0.529014 3
0.802167 0.545743 3
0.805297 0.541241 3
0.804873 0.536887 3
0.786532 0.529494 3
0.793825 0.532480 3
0.804531 0.531654 3
0.792217 0.525179 3
0.809956 0.548006 3
0.802794 0.541152 3
0.801961 0.526913 3
0.799513 0.529920 3
0.796520 0.544288 3
0.795041 0.532310 3
0.798788 0.549041 3
0.804062 0.545656 3
0.801463 0.537749 3
0.805013 0.536676 3
0.808058 0.534416 3
0.795644 0.531531 3
0.800133 0.541000 3
0.805164 0.547277 3
0.795441 0.533048 3
0.797625 0.527187 3
0.799028 0.537781 3
0.807075 0.540429 3
0.799107 0.526128 3
0.798342 0.535999 3
0.800593 0.535767 3
0.799491 0.551078 3
0.794026 0.533485 3
0.803219 0.546425 3
0.810551 0.535018 3
0.800225 0.540978 3
0.805349 0.531461 3
0.790170 0.534410 3
0.810673 0.528023 3
0.805599 0.538696 3
0.792921 0.546471 3
0.799376 0.538724 3
0.812947 0.530221 3
0.808783 0.526976 3
0.807379 0.547260 3
0.803104 0.546991 3
0.796566 0.532059 3
0.793660 0.534602 3
0.809624 0.553454 3
0.802658 0.544830 3
0.793832 0.545496 3
0.800910 0.540959 3
0.806411 0.542371 3
0.815315 0.551201 3
0.802052 0.544852 3
0.790268 0.532254 3
0.806496 0.530180 3
0.810693 0.530772 3
0.823615 0.538678 3
0.804934 0.550507 3
0.815099 0.525306 3
0.803952 0.535045 3
0.793248 0.534144 3
0.792594 0.537386 3
0.807430 0.541122 3
0.794912 0.538902 3
0.796947 0.540592 3
0.794824 0.543874 3
0.519185 0.630339 4
0.509263 0.614614 4
0.514683 0.610891 4
0.516419 0.625230 4
0.515834 0.620129 4
0.517971 0.631178 4
0.513218 0.608864 4
0.514075 0.623154 4
0.507408 0.635497 4
0.511104 0.625350 4
0.523162 0.627274 4
0.504267 0.629867 4
0.519052 0.620548 4
0.519201 0.631539 4
0.524998 0.617447 4
0.496683 0.626967 4
0.520745 0.622603 4
0.513650 0.619579 4
0.510482 0.625888 4
0.516544 0.621577 4
0.517721 0.636409 4
0.508193 0.621016 4
0.510443 0.622253 4
0.515994 0.625285 4
0.519266 0.627755 4
0.503576 0.622623 4
0.510694 0.623937 4
0.507281 0.629416 4
0.511685 0.608248 4
0.503322 0.616029 4
0.513576 0.625971 4
0.515888 0.616540 4
0.515698 0.625714 4
0.507701 0.620707 4
0.513022 0.625231 4
0.513061 0.617354 4
0.521419 0.626455 4
0.524425 0.613038 4
0.511394 0.621472 4
0.512524 0.637114 4
0.518414 0.625281 4
0.528683 0.628349 4
0.508133 0.614953 4
0.510796 0.628608 4
0.508487 0.626098 4
0.518349 0.628592 4
0.524209 0.621681 4
0.516766 0.627153 4
0.515521 0.629964 4
0.518434 0.622997 4
0.505334 0.619196 4
0.520503 0.629034 4
0.516641 0.630916 4
0.508945 0.610702 4
0.519231 0.615034 4
0.488472 0.617149 4
0.510277 0.617379 4
0.521918 0.631866 4
0.518275 0.634644 4
0.502514 0.623969 4
0.502404 0.613874 4
0.511314 0.624332 4
0.521836 0.629507 4
0.510811 0.619807 4
0.501391 0.616312 4
0.512377 0.631088 4
0.509581 0.620683 4
0.517150 0.613218 4
0.499707 0.629587 4
0.511777 0.617110 4
0.517323 0.614541 4
0.518801 0.615973 4
0.512867 0.617149 4
0.521947 0.623363 4
0.503844 0.619215 4
0.493685 0.621045 4
0.519725 0.623828 4
0.503869 0.635187 4
0.520112 0.619462 4
0.526019 0.628059 4
0.502009 0.621674 4
0.511633 0.625932 4
0.504189 0.627505 4
0.514359 0.620270 4
0.511849 0.614127 4
0.502084 0.626553 4
0.712900 0.764411 5
0.712678 0.768573 5
0.715687 0.775577 5
0.705193 0.772637 5
0.717867 0.743937 5
0.708766 0.776520 5
0.709452 0.774456 5
0.708788 0.764307 5
0.706006 0.771528 5
0.709581 0.770763 5
0.703451 0.765524 5
0.706207 0.760065 5
0.714881 0.773680 5
0.716657 0.772716 5
0.717295 0.771269 5
0.704260 0.777485 5
0.707106 0.785698 5
0.720980 0.758798 5
0.715630 0.772916 5
0.712105 0.765817 5
0.698289 0.770055 5
0.702101 0.768722 5
0.704246 0.759143 5
0.728778 0.760493 5
0.721588 0.776220 5
0.709044 0.772119 5
0.725492 0.780360 5
0.713422 0.770082 5
0.702763 0.768305 5
0.720408 0.768095 5
0.705943 0.772542 5
0.716893 0.773790 5
0.714018 0.777700 5
0.700813 0.780189 5
0.688820 0.761131 5
0.714206 0.770157 5
0.710997 0.770795 5
0.700063 0.767093 5
0.725341 0.779548 5
0.723006 0.774623 5
0.717680 0.769824 5
0.713361 0.772213 5
0.711719 0.779881 5
0.709267 0.778625 5
0.694924 0.779902 5
0.705322 0.770381 5
0.711090 0.754132 5
0.729017 0.753872 5
0.710112 0.762950 5
0.710911 0.767343 5
0.705095 0.765974 5
0.718408 0.778543 5
0.713522 0.774779 5
0.717026 0.780636 5
0.715281 0.755918 5
0.707134 0.766219 5
0.721724 0.776943 5
0.704468 0.772529 5
0.717581 0.772966 5
0.700135 0.765351 5
0.709218 0.762120 5
0.704558 0.774802 5
0.718163 0.767663 5
0.706590 0.785340 5
0.707976 0.788215 5
0.703785 0.762519 5
0.711524 0.763000 5
0.706873 0.774502 5
0.708936 0.778870 5
0.709961 0.775969 5
0.723592 0.776402 5
0.699940 0.771528 5
0.730719 0.771852 5
0.714623 0.767450 5
0.707105 0.779931 5
0.716086 0.756389 5
0.709888 0.788448 5
0.708800 0.770461 5
0.701624 0.765635 5
0.714708 0.770032 5
0.717498 0.777699 5
0.714848 0.766511 5
0.704541 0.767745 5
0.708722 0.770548 5
0.703202 0.773788 5
0.701535 0.775271 5
0.702316 0.766707 5
0.713686 0.779876 5
0.710453 0.766543 5
0.708998 0.767356 5
0.712837 0.762991 5
0.712114 0.774962 5
0.700898 0.775110 5
0.712631 0.762238 5
0.707571 0.779148 5
0.701526 0.769231 5
0.723104 0.788661 5
0.662475 0.314251 6
0.670412 0.317217 6
0.661170 0.312112 6
0.671202 0.307923 6
0.668800 0.316723 6
0.664472 0.306156 6
0.655673 0.320677 6
0.672078 0.323013 6
0.669512 0.320754 6
0.680854 0.303112 6
0.666120 0.321453 6
0.663119 0.319035 6
0.667784 0.320597 6
0.648025 0.319903 6
0.664605 0.318050 6
0.667234 0.307458 6
0.667082 0.322313 6
0.661936 0.320008 6
0.665073 0.311954 6
0.682201 0.316377 6
0.654797 0.321749 6
0.664533 0.297677 6
0.672435 0.310843 6
0.669420 0.305156 6
0.674075 0.318486 6
0.675599 0.334177 6
0.670839 0.321313 6
0.672696 0.310279 6
0.666222 0.319787 6
0.655751 0.321408 6
0.662356 0.320518 6
0.659621 0.318857 6
0.675886 0.330059 6
0.657360 0.317729 6
0.677480 0.300584 6
0.678320 0.308551 6
0.681427 0.322248 6
0.647892 0.317045 6
0.674619 0.297884 6
0.671859 0.308342 6
0.663823 0.314309 6
0.667754 0.307498 6
0.672207 0.314791 6
0.673460 0.319357 6
0.667370 0.316321 6
0.663540 0.316783 6
0.664050 0.306434 6
0.684237 0.324069 6
0.669147 0.312134 6
0.682240 0.323488 6
0.665031 0.315795 6
0.668149 0.316096 6
0.656224 0.321305 6
0.675761 0.313866 6
0.656150 0.311217 6
0.669216 0.325202 6
0.664076 0.320146 6
0.650113 0.304444 6
0.667781 0.312356 6
0.668782 0.329125 6
0.679870 0.319521 6
0.678680 0.317762 6
0.657923 0.313003 6
0.669753 0.317893 6
0.672789 0.328375 6
0.681518 0.305446 6
0.656603 0.311209 6
0.665229 0.314321 6
0.683189 0.309944 6
0.666911 0.333738 6
0.665516 0.309915 6
0.668431 0.309186 6
0.654871 0.314867 6
0.675684 0.319292 6
0.653941 0.316827 6
0.663655 0.325645 6
0.674023 0.312548 6
0.662399 0.298753 6
0.667513 0.311807 6
0.665625 0.314335 6
0.673256 0.330623 6
0.663818 0.323560 6
0.663929 0.318728 6
0.675824 0.320506 6
0.661669 0.318749 6
0.099688 0.875135 7
0.101285 0.880494 7
0.112791 0.876532 7
0.089095 0.878563 7
0.104788 0.878517 7
0.104863 0.881187 7
0.105296 0.874801 7
0.110555 0.876073 7
0.106510 0.861556 7
0.091918 0.888926 7
0.097542 0.880519 7
0.104605 0.876228 7
0.081518 0.864994 7
0.103175 0.876470 7
0.100524 0.865685 7
0.105933 0.882003 7
0.103576 0.888063 7
0.097537 0.888958 7
0.111382 0.856664 7
0.104525 0.872758 7
0.090149 0.874507 7
0.111568 0.876513 7
0.094751 0.872798 7
0.097412 0.873427 7
0.112548 0.870244 7
0.103566 0.869653 7
0.097520 0.882925 7
0.103606 0.868006 7
0.103997 0.872740 7
0.110751 0.866702 7
0.107625 0.862971 7
0.110980 0.875651 7
0.096274 0.885363 7
0.106200 0.880973 7
0.089962 0.881003 7
0.106791 0.877392 7
0.110870 0.872343 7
0.090714 0.874880 7
0.107012 0.887993 7
0.101502 0.884695 7
0.099167 0.880200 7
0.097621 0.881511 7
0.100363 0.883576 7
0.103084 0.879908 7
0.088576 0.855398 7
0.090899 0.862489 7
0.098798 0.886037 7
0.094836 0.869671 7
0.105565 0.877793 7
0.100061 0.884122 7
0.109967 0.875048 7
0.117206 0.877393 7
0.099390 0.883828 7
0.100952 0.877963 7
0.102576 0.876208 7
0.093085 0.865187 7
0.106156 0.881296 7
0.103302 0.879996 7
0.096586 0.881135 7
0.104234 0.867827 7
0.095309 0.888902 7
0.098441 0.880795 7
0.108800 0.871380 7
0.104368 0.880235 7
0.088570 0.883048 7
0.094707 0.856187 7
0.097667 0.887153 7
0.101350 0.864636 7
0.090174 0.874206 7
0.099680 0.865983 7
0.103316 0.875045 7
0.094722 0.871863 7
0.096775 0.878105 7
0.106685 0.875110 7
0.095999 0.878911 7
0.108946 0.865979 7
0.114792 0.871952 7
0.088852 0.872501 7
0.096906 0.875954 7
0.106743 0.877383 7
0.084536 0.877218 7
0.109398 0.870172 7
0.102910 0.879436 7
0.095597 0.879252 7
0.095263 0.876273 7
0.101077 0.875152 7
0.105840 0.871526 7
0.103401 0.882393 7
0.105758 0.888022 7
0.094727 0.870190 7
0.107556 0.885562 7
0.391151 0.372913 8
0.396851 0.374530 8
0.387246 0.360357 8
0.399845 0.375064 8
0.402903 0.371172 8
0.404465 0.371289 8
0.390709 0.376817 8
0.400422 0.379311 8
0.402529 0.378357 8
0.402051 0.370350 8
0.391323 0.380012 8
0.400033 0.375709 8
0.400609 0.377004 8
0.416386 0.377199 8
0.416527 0.378819 8
0.393939 0.366379 8
0.408493 0.384599 8
0.405250 0.365662 8
0.391384 0.370972 8
0.413312 0.367704 8
0.385878 0.374261 8
0.406657 0.359765 8
0.408067 0.369183 8
0.408594 0.371846 8
0.399022 0.372602 8
0.385986 0.373077 8
0.401142 0.374491 8
0.398734 0.368933 8
0.405242 0.377526 8
0.386604 0.369892 8
0.396811 0.367101 8
0.410045 0.360132 8
0.399473 0.375565 8
0.405037 0.372372 8
0.395070 0.363531 8
0.401734 0.376605 8
0.398507 0.363606 8
0.416273 0.369763 8
0.403819 0.372211 8
0.400559 0.374773 8
0.394574 0.373124 8
0.392539 0.381927 8
0.402160 0.380864 8
0.391861 0.364052 8
0.401197 0.380703 8
0.390187 0.376233 8
0.401885 0.365610 8
0.403188 0.381247 8
0.395811 0.375116 8
0.393499 0.369729 8
0.406178 0.377629 8
0.403665 0.368663 8
0.405154 0.364615 8
0.387341 0.367245 8
0.403569 0.380787 8
0.405695 0.373103 8
0.404369 0.365569 8
0.393303 0.365278 8
0.396637 0.378610 8
0.407673 0.382182 8
0.404313 0.367098 8
0.408287 0.359160 8
0.400095 0.369525 8
0.400666 0.374390 8
0.398795 0.374689 8
0.397812 0.365990 8
0.395887 0.378208 8
0.414589 0.373875 8
0.410181 0.366118 8
0.399783 0.356790 8
0.414043 0.368556 8
0.400650 0.367068 8
0.396896 0.371364 8
0.392450 0.369223 8
0.399335 0.361993 8
0.405616 0.377554 8
0.388975 0.378991 8
0.418590 0.371033 8
0.400639 0.364901 8
0.416201 0.384478 8
0.405743 0.374995 8
0.411562 0.367375 8
0.398439 0.385009 8
0.325654 0.665703 9
0.331445 0.655327 9
0.323689 0.672963 9
0.319203 0.671035 9
0.326892 0.663753 9
0.318311 0.669395 9
0.316802 0.670037 9
0.317371 0.684563 9
0.309922 0.669939 9
0.316214 0.669218 9
0.318148 0.672388 9
0.317439 0.662124 9
0.315235 0.674271 9
0.332762 0.681312 9
0.320675 0.671861 9
0.314039 0.674315 9
0.325890 0.660655 9
0.323037 0.660191 9
0.328339 0.672979 9
0.320917 0.664086 9
0.324737 0.667154 9
0.312796 0.672788 9
0.332333 0.670353 9
0.314051 0.677807 9
0.319660 0.679246 9
0.301128 0.669527 9
0.320985 0.665172 9
0.326514 0.675955 9
0.326731 0.672035 9
0.316439 0.670078 9
0.311436 0.668051 9
0.320644 0.676667 9
0.323334 0.669106 9
0.322265 0.674996 9
0.322587 0.678862 9
0.326869 0.674575 9
0.311974 0.663360 9
0.316487 0.670582 9
0.307670 0.680065 9
0.315307 0.669787 9
0.322826 0.679245 9
0.337810 0.676691 9
0.314496 0.664726 9
0.312209 0.669643 9
0.323090 0.659068 9
0.318948 0.668023 9
0.321505 0.668460 9
0.328011 0.669516 9
0.327556 0.673610 9
0.317198 0.663620 9
0.323440 0.672980 9
0.314349 0.681564 9
0.321360 0.679129 9
0.320208 0.673725 9
0.319491 0.667046 9
0.334157 0.680624 9
0.332970 0.663022 9
0.330935 0.681719 9
0.325573 0.666507 9
0.314182 0.675748 9
0.331346 0.667064 9
0.323485 0.660279 9
0.328751 0.678653 9
0.302701 0.665189 9
0.337182 0.669980 9
0.314901 0.681332 9
0.308286 0.660543 9
0.316296 0.675344 9
0.324042 0.674156 9
0.322527 0.670036 9
0.308032 0.677525 9
0.319901 0.671695 9
0.322685 0.666353 9
0.319420 0.652606 9
0.339919 0.660231 9
0.322866 0.658368 9
0.332827 0.674024 9
0.316794 0.663390 9
0.508127 0.731946 10
0.511053 0.740904 10
0.506928 0.747855 10
0.502542 0.754890 10
0.524191 0.741115 10
0.501299 0.741158 10
0.506696 0.742727 10
0.509775 0.737459 10
0.499368 0.749923 10
0.501001 0.740287 10
0.511139 0.740626 10
0.510385 0.736109 10
0.515327 0.737886 10
0.518764 0.747098 10
0.508669 0.734680 10
0.512233 0.733506 10
0.500369 0.740996 10
0.498314 0.732027 10
0.515755 0.741151 10
0.503911 0.742414 10
0.501988 0.743702 10
0.506535 0.750423 10
0.493708 0.748819 10
0.497595 0.756185 10
0.495512 0.737119 10
0.517198 0.732227 10
0.521046 0.741537 10
0.522487 0.737519 10
0.516918 0.734260 10
0.503356 0.738548 10
0.509793 0.744886 10
0.500490 0.726864 10
0.496092 0.739889 10
0.500001 0.753288 10
0.505816 0.734995 10
0.514016 0.742966 10
0.507836 0.729202 10
0.512778 0.749251 10
0.504255 0.740302 10
0.513010 0.735712 10
0.487005 0.742377 10
0.512791 0.739129 10
0.496515 0.743838 10
0.497959 0.736778 10
0.501499 0.738298 10
0.499433 0.756674 10
0.494108 0.739849 10
0.505404 0.725814 10
0.481696 0.737838 10
0.506514 0.738601 10
0.502105 0.725909 10
0.497264 0.743989 10
0.499876 0.735306 10
0.514545 0.743017 10
0.501819 0.747546 10
0.500741 0.734510 10
0.521341 0.739593 10
0.503275 0.737290 10
0.508957 0.735267 10
0.499172 0.725894 10
0.511165 0.735463 10
0.503604 0.743872 10
0.504063 0.733465 10
0.517527 0.735937 10
0.517913 0.743180 10
0.507979 0.739188 10
0.495719 0.743317 10
0.504605 0.741753 10
0.506512 0.735634 10
0.492897 0.737079 10
0.494400 0.730236 10
0.495040 0.754005 10
0.515748 0.730936 10
0.510893 0.744091 10
0.491396 0.731756 10
0.489810 0.739623 10
0.502647 0.739792 10
0.514834 0.727659 10
0.498987 0.729535 10
0.512842 0.737896 10
0.495827 0.754216 10
0.506160 0.737105 10
0.498961 0.744176 10
0.518521 0.741899 10
0.515718 0.726569 10
0.517777 0.744097 10
0.500492 0.728114 10
0.519574 0.738645 10
0.504652 0.734642 10
0.505521 0.735476 10
0.502251 0.749544 10
0.501255 0.730192 10
0.502739 0.743510 10
0.507247 0.747627 10
0.828088 0.495455 11
0.837858 0.498341 11
0.831949 0.499060 11
0.853311 0.499768 11
0.835037 0.504054 11
0.839980 0.503229 11
0.836952 0.488696 11
0.837236 0.501080 11
0.846954 0.511783 11
0.859155 0.502646 11
0.841108 0.510660 11
0.838973 0.496361 11
0.844636 0.516006 11
0.835010 0.503858 11
0.846582 0.505215 11
0.844081 0.512363 11
0.841812 0.506691 11
0.857048 0.503348 11
0.844809 0.488988 11
0.851838 0.508797 11
0.838735 0.504238 11
0.858233 0.505580 11
0.838973 0.513623 11
0.852727 0.508278 11
0.834959 0.502706 11
0.853906 0.500717 11
0.827715 0.512756 11
0.833684 0.499753 11
0.838576 0.490884 11
0.845012 0.511017 11
0.826200 0.497483 11
0.839234 0.498707 11
0.839274 0.510011 11
0.842887 0.494107 11
0.845671 0.499906 11
0.846309 0.507972 11
0.831016 0.510318 11
0.853416 0.511831 11
0.838715 0.498483 11
0.846603 0.498092 11
0.830808 0.500608 11
0.854240 0.507688 11
0.844454 0.517009 11
0.837614 0.499234 11
0.844949 0.509854 11
0.856218 0.497569 11
0.846881 0.513278 11
0.849724 0.498078 11
0.854259 0.501657 11
0.847749 0.496980 11
0.838665 0.515279 11
0.845300 0.504643 11
0.843258 0.500124 11
0.846785 0.498209 11
0.842326 0.494627 11
0.843677 0.507552 11
0.849523 0.509113 11
0.835159 0.507507 11
0.844169 0.517839 11
0.837822 0.500870 11
0.836997 0.493520 11
0.843380 0.494826 11
0.849155 0.505430 11
0.850837 0.498055 11
0.831106 0.513215 11
0.855142 0.507668 11
0.847723 0.512608 11
0.847970 0.508143 11
0.844892 0.501853 11
0.842267 0.503656 11
0.836158 0.504797 11
0.839100 0.497714 11
0.851982 0.517416 11
0.848571 0.502470 11
0.844908 0.509139 11
0.847943 0.502820 11
0.833726 0.498767 11
0.842465 0.501729 11
0.848320 0.508542 11
0.825962 0.510968 11
0.828969 0.504473 11
